task1/Vsinegen.vcd
$version Generated by VerilatedVcd $end
$date Tue Nov 19 13:31:31 2024 $end
$timescale 1ps $end

 $scope module TOP $end
  $var wire  1 & clk $end
  $var wire  8 ' dout [7:0] $end
  $var wire  1 % en $end
  $var wire  8 # incr [7:0] $end
  $var wire  1 $ rst $end
  $scope module sinegen $end
   $var wire 32 ) ADDRESS_WIDTH [31:0] $end
   $var wire 32 ) DATA_WIDTH [31:0] $end
   $var wire 32 ) INCR_WIDTH [31:0] $end
   $var wire  8 ( address [7:0] $end
   $var wire  1 & clk $end
   $var wire  8 ' dout [7:0] $end
   $var wire  1 % en $end
   $var wire  8 # incr [7:0] $end
   $var wire  1 $ rst $end
   $scope module addrCounter $end
    $var wire 32 ) ADDRESS_WIDTH [31:0] $end
    $var wire 32 ) INCR_WIDTH [31:0] $end
    $var wire  1 & clk $end
    $var wire  8 ( count [7:0] $end
    $var wire  1 % en $end
    $var wire  8 # incr [7:0] $end
    $var wire  1 $ rst $end
   $upscope $end
   $scope module sineRom $end
    $var wire 32 ) ADDRESS_WIDTH [31:0] $end
    $var wire 32 ) DATA_WIDTH [31:0] $end
    $var wire  8 ( addr [7:0] $end
    $var wire  1 & clk $end
    $var wire  8 ' dout [7:0] $end
   $upscope $end
  $upscope $end
 $upscope $end
$enddefinitions $end


#0
b00000001 #
0$
1%
1&
b00000000 '
b00000000 (
b00000000000000000000000000001000 )
#1
0&
#2
b00100000 #
1&
b11111110 '
b00000001 (
#3
0&
#4
1&
b11111101 '
b00100001 (
#5
0&
#6
1&
b11010110 '
b01000001 (
#7
0&
#8
1&
b01111011 '
b01100001 (
#9
0&
#10
1&
b00100011 '
b10000001 (
#11
0&
#12
1&
b00000000 '
b10100001 (
#13
0&
#14
1&
b00100111 '
b11000001 (
#15
0&
#16
1&
b10000010 '
b11100001 (
#17
0&
#18
1&
b11011010 '
b00000001 (
#19
0&
#20
1&
b11111101 '
b00100001 (
#21
0&
#22
1&
b11010110 '
b01000001 (
#23
0&
#24
1&
b01111011 '
b01100001 (
#25
0&
#26
1&
b00100011 '
b10000001 (
#27
0&
#28
1&
b00000000 '
b10100001 (
#29
0&
#30
1&
b00100111 '
b11000001 (
#31
0&
#32
1&
b10000010 '
b11100001 (
#33
0&
#34
1&
b11011010 '
b00000001 (
#35
0&
#36
1&
b11111101 '
b00100001 (
#37
0&
#38
1&
b11010110 '
b01000001 (
#39
0&
#40
1&
b01111011 '
b01100001 (
#41
0&
#42
1&
b00100011 '
b10000001 (
#43
0&
#44
1&
b00000000 '
b10100001 (
#45
0&
#46
1&
b00100111 '
b11000001 (
#47
0&
#48
1&
b10000010 '
b11100001 (
#49
0&
#50
1&
b11011010 '
b00000001 (
#51
0&
#52
1&
b11111101 '
b00100001 (
#53
0&
#54
1&
b11010110 '
b01000001 (
#55
0&
#56
1&
b01111011 '
b01100001 (
#57
0&
#58
1&
b00100011 '
b10000001 (
#59
0&
#60
1&
b00000000 '
b10100001 (
#61
0&
#62
1&
b00100111 '
b11000001 (
#63
0&
#64
1&
b10000010 '
b11100001 (
#65
0&
#66
1&
b11011010 '
b00000001 (
#67
0&
#68
1&
b11111101 '
b00100001 (
#69
0&
#70
1&
b11010110 '
b01000001 (
#71
0&
#72
1&
b01111011 '
b01100001 (
#73
0&
#74
1&
b00100011 '
b10000001 (
#75
0&
#76
1&
b00000000 '
b10100001 (
#77
0&
#78
1&
b00100111 '
b11000001 (
#79
0&
#80
1&
b10000010 '
b11100001 (
#81
0&
#82
1&
b11011010 '
b00000001 (
#83
0&
#84
1&
b11111101 '
b00100001 (
#85
0&
#86
1&
b11010110 '
b01000001 (
#87
0&
#88
1&
b01111011 '
b01100001 (
#89
0&
#90
1&
b00100011 '
b10000001 (
#91
0&
#92
1&
b00000000 '
b10100001 (
#93
0&
#94
1&
b00100111 '
b11000001 (
#95
0&
#96
1&
b10000010 '
b11100001 (
#97
0&
#98
1&
b11011010 '
b00000001 (
#99
0&
#100
1&
b11111101 '
b00100001 (
#101
0&
#102
1&
b11010110 '
b01000001 (
#103
0&
#104
1&
b01111011 '
b01100001 (
#105
0&
#106
1&
b00100011 '
b10000001 (
#107
0&
#108
1&
b00000000 '
b10100001 (
#109
0&
#110
1&
b00100111 '
b11000001 (
#111
0&
#112
1&
b10000010 '
b11100001 (
#113
0&
#114
1&
b11011010 '
b00000001 (
#115
0&
#116
1&
b11111101 '
b00100001 (
#117
0&
#118
1&
b11010110 '
b01000001 (
#119
0&
#120
1&
b01111011 '
b01100001 (
#121
0&
#122
1&
b00100011 '
b10000001 (
#123
0&
#124
1&
b00000000 '
b10100001 (
#125
0&
#126
1&
b00100111 '
b11000001 (
#127
0&
#128
1&
b10000010 '
b11100001 (
#129
0&
#130
1&
b11011010 '
b00000001 (
#131
0&
#132
1&
b11111101 '
b00100001 (
#133
0&
#134
1&
b11010110 '
b01000001 (
#135
0&
#136
1&
b01111011 '
b01100001 (
#137
0&
#138
1&
b00100011 '
b10000001 (
#139
0&
#140
1&
b00000000 '
b10100001 (
#141
0&
#142
1&
b00100111 '
b11000001 (
#143
0&
#144
1&
b10000010 '
b11100001 (
#145
0&
#146
1&
b11011010 '
b00000001 (
#147
0&
#148
1&
b11111101 '
b00100001 (
#149
0&
#150
1&
b11010110 '
b01000001 (
#151
0&
#152
1&
b01111011 '
b01100001 (
#153
0&
#154
1&
b00100011 '
b10000001 (
#155
0&
#156
1&
b00000000 '
b10100001 (
#157
0&
#158
1&
b00100111 '
b11000001 (
#159
0&
#160
1&
b10000010 '
b11100001 (
#161
0&
#162
1&
b11011010 '
b00000001 (
#163
0&
#164
1&
b11111101 '
b00100001 (
#165
0&
#166
1&
b11010110 '
b01000001 (
#167
0&
#168
1&
b01111011 '
b01100001 (
#169
0&
#170
1&
b00100011 '
b10000001 (
#171
0&
#172
1&
b00000000 '
b10100001 (
#173
0&
#174
1&
b00100111 '
b11000001 (
#175
0&
#176
1&
b10000010 '
b11100001 (
#177
0&
#178
1&
b11011010 '
b00000001 (
#179
0&
#180
1&
b11111101 '
b00100001 (
#181
0&
#182
1&
b11010110 '
b01000001 (
#183
0&
#184
1&
b01111011 '
b01100001 (
#185
0&
#186
1&
b00100011 '
b10000001 (
#187
0&
#188
1&
b00000000 '
b10100001 (
#189
0&
#190
1&
b00100111 '
b11000001 (
#191
0&
#192
1&
b10000010 '
b11100001 (
#193
0&
#194
1&
b11011010 '
b00000001 (
#195
0&
#196
1&
b11111101 '
b00100001 (
#197
0&
#198
1&
b11010110 '
b01000001 (
#199
0&
#200
1&
b01111011 '
b01100001 (
#201
0&
#202
1&
b00100011 '
b10000001 (
#203
0&
#204
1&
b00000000 '
b10100001 (
#205
0&
#206
1&
b00100111 '
b11000001 (
#207
0&
#208
1&
b10000010 '
b11100001 (
#209
0&
#210
1&
b11011010 '
b00000001 (
#211
0&
#212
1&
b11111101 '
b00100001 (
#213
0&
#214
1&
b11010110 '
b01000001 (
#215
0&
#216
1&
b01111011 '
b01100001 (
#217
0&
#218
1&
b00100011 '
b10000001 (
#219
0&
#220
1&
b00000000 '
b10100001 (
#221
0&
#222
1&
b00100111 '
b11000001 (
#223
0&
#224
1&
b10000010 '
b11100001 (
#225
0&
#226
1&
b11011010 '
b00000001 (
#227
0&
#228
1&
b11111101 '
b00100001 (
#229
0&
#230
1&
b11010110 '
b01000001 (
#231
0&
#232
1&
b01111011 '
b01100001 (
#233
0&
#234
1&
b00100011 '
b10000001 (
#235
0&
#236
1&
b00000000 '
b10100001 (
#237
0&
#238
1&
b00100111 '
b11000001 (
#239
0&
#240
1&
b10000010 '
b11100001 (
#241
0&
#242
1&
b11011010 '
b00000001 (
#243
0&
#244
1&
b11111101 '
b00100001 (
#245
0&
#246
1&
b11010110 '
b01000001 (
#247
0&
#248
1&
b01111011 '
b01100001 (
#249
0&
#250
1&
b00100011 '
b10000001 (
#251
0&
#252
1&
b00000000 '
b10100001 (
#253
0&
#254
1&
b00100111 '
b11000001 (
#255
0&
#256
1&
b10000010 '
b11100001 (
#257
0&
#258
1&
b11011010 '
b00000001 (
#259
0&
#260
1&
b11111101 '
b00100001 (
#261
0&
#262
1&
b11010110 '
b01000001 (
#263
0&
#264
1&
b01111011 '
b01100001 (
#265
0&
#266
1&
b00100011 '
b10000001 (
#267
0&
#268
1&
b00000000 '
b10100001 (
#269
0&
#270
1&
b00100111 '
b11000001 (
#271
0&
#272
1&
b10000010 '
b11100001 (
#273
0&
#274
1&
b11011010 '
b00000001 (
#275
0&
#276
1&
b11111101 '
b00100001 (
#277
0&
#278
1&
b11010110 '
b01000001 (
#279
0&
#280
1&
b01111011 '
b01100001 (
#281
0&
#282
1&
b00100011 '
b10000001 (
#283
0&
#284
1&
b00000000 '
b10100001 (
#285
0&
#286
1&
b00100111 '
b11000001 (
#287
0&
#288
1&
b10000010 '
b11100001 (
#289
0&
#290
1&
b11011010 '
b00000001 (
#291
0&
#292
1&
b11111101 '
b00100001 (
#293
0&
#294
1&
b11010110 '
b01000001 (
#295
0&
#296
1&
b01111011 '
b01100001 (
#297
0&
#298
1&
b00100011 '
b10000001 (
#299
0&
#300
1&
b00000000 '
b10100001 (
#301
0&
#302
1&
b00100111 '
b11000001 (
#303
0&
#304
1&
b10000010 '
b11100001 (
#305
0&
#306
1&
b11011010 '
b00000001 (
#307
0&
#308
1&
b11111101 '
b00100001 (
#309
0&
#310
1&
b11010110 '
b01000001 (
#311
0&
#312
1&
b01111011 '
b01100001 (
#313
0&
#314
1&
b00100011 '
b10000001 (
#315
0&
#316
1&
b00000000 '
b10100001 (
#317
0&
#318
1&
b00100111 '
b11000001 (
#319
0&
#320
1&
b10000010 '
b11100001 (
#321
0&
#322
1&
b11011010 '
b00000001 (
#323
0&
#324
1&
b11111101 '
b00100001 (
#325
0&
#326
1&
b11010110 '
b01000001 (
#327
0&
#328
1&
b01111011 '
b01100001 (
#329
0&
#330
1&
b00100011 '
b10000001 (
#331
0&
#332
1&
b00000000 '
b10100001 (
#333
0&
#334
1&
b00100111 '
b11000001 (
#335
0&
#336
1&
b10000010 '
b11100001 (
#337
0&
#338
1&
b11011010 '
b00000001 (
#339
0&
#340
1&
b11111101 '
b00100001 (
#341
0&
#342
1&
b11010110 '
b01000001 (
#343
0&
#344
1&
b01111011 '
b01100001 (
#345
0&
#346
1&
b00100011 '
b10000001 (
#347
0&
#348
1&
b00000000 '
b10100001 (
#349
0&
#350
1&
b00100111 '
b11000001 (
#351
0&
#352
1&
b10000010 '
b11100001 (
#353
0&
#354
1&
b11011010 '
b00000001 (
#355
0&
#356
1&
b11111101 '
b00100001 (
#357
0&
#358
1&
b11010110 '
b01000001 (
#359
0&
#360
1&
b01111011 '
b01100001 (
#361
0&
#362
1&
b00100011 '
b10000001 (
#363
0&
#364
1&
b00000000 '
b10100001 (
#365
0&
#366
1&
b00100111 '
b11000001 (
#367
0&
#368
1&
b10000010 '
b11100001 (
#369
0&
#370
1&
b11011010 '
b00000001 (
#371
0&
#372
1&
b11111101 '
b00100001 (
#373
0&
#374
1&
b11010110 '
b01000001 (
#375
0&
#376
1&
b01111011 '
b01100001 (
#377
0&
#378
1&
b00100011 '
b10000001 (
#379
0&
#380
1&
b00000000 '
b10100001 (
#381
0&
#382
1&
b00100111 '
b11000001 (
#383
0&
#384
1&
b10000010 '
b11100001 (
#385
0&
#386
1&
b11011010 '
b00000001 (
#387
0&
#388
1&
b11111101 '
b00100001 (
#389
0&
#390
1&
b11010110 '
b01000001 (
#391
0&
#392
1&
b01111011 '
b01100001 (
#393
0&
#394
1&
b00100011 '
b10000001 (
#395
0&
#396
1&
b00000000 '
b10100001 (
#397
0&
#398
1&
b00100111 '
b11000001 (
#399
0&
#400
1&
b10000010 '
b11100001 (
#401
0&
#402
1&
b11011010 '
b00000001 (
#403
0&
#404
1&
b11111101 '
b00100001 (
#405
0&
#406
1&
b11010110 '
b01000001 (
#407
0&
#408
1&
b01111011 '
b01100001 (
#409
0&
#410
1&
b00100011 '
b10000001 (
#411
0&
#412
1&
b00000000 '
b10100001 (
#413
0&
#414
1&
b00100111 '
b11000001 (
#415
0&
#416
1&
b10000010 '
b11100001 (
#417
0&
#418
1&
b11011010 '
b00000001 (
#419
0&
#420
1&
b11111101 '
b00100001 (
#421
0&
#422
1&
b11010110 '
b01000001 (
#423
0&
#424
1&
b01111011 '
b01100001 (
#425
0&
#426
1&
b00100011 '
b10000001 (
#427
0&
#428
1&
b00000000 '
b10100001 (
#429
0&
#430
1&
b00100111 '
b11000001 (
#431
0&
#432
1&
b10000010 '
b11100001 (
#433
0&
#434
1&
b11011010 '
b00000001 (
#435
0&
#436
1&
b11111101 '
b00100001 (
#437
0&
#438
1&
b11010110 '
b01000001 (
#439
0&
#440
1&
b01111011 '
b01100001 (
#441
0&
#442
1&
b00100011 '
b10000001 (
#443
0&
#444
1&
b00000000 '
b10100001 (
#445
0&
#446
1&
b00100111 '
b11000001 (
#447
0&
#448
1&
b10000010 '
b11100001 (
#449
0&
#450
1&
b11011010 '
b00000001 (
#451
0&
#452
1&
b11111101 '
b00100001 (
#453
0&
#454
1&
b11010110 '
b01000001 (
#455
0&
#456
1&
b01111011 '
b01100001 (
#457
0&
#458
1&
b00100011 '
b10000001 (
#459
0&
#460
1&
b00000000 '
b10100001 (
#461
0&
#462
1&
b00100111 '
b11000001 (
#463
0&
#464
1&
b10000010 '
b11100001 (
#465
0&
#466
1&
b11011010 '
b00000001 (
#467
0&
#468
1&
b11111101 '
b00100001 (
#469
0&
#470
1&
b11010110 '
b01000001 (
#471
0&
#472
1&
b01111011 '
b01100001 (
#473
0&
#474
1&
b00100011 '
b10000001 (
#475
0&
#476
1&
b00000000 '
b10100001 (
#477
0&
#478
1&
b00100111 '
b11000001 (
#479
0&
#480
1&
b10000010 '
b11100001 (
#481
0&
#482
1&
b11011010 '
b00000001 (
#483
0&
#484
1&
b11111101 '
b00100001 (
#485
0&
#486
1&
b11010110 '
b01000001 (
#487
0&
#488
1&
b01111011 '
b01100001 (
#489
0&
#490
1&
b00100011 '
b10000001 (
#491
0&
#492
1&
b00000000 '
b10100001 (
#493
0&
#494
1&
b00100111 '
b11000001 (
#495
0&
#496
1&
b10000010 '
b11100001 (
#497
0&
#498
1&
b11011010 '
b00000001 (
#499
0&
#500
1&
b11111101 '
b00100001 (
#501
0&
#502
1&
b11010110 '
b01000001 (
#503
0&
#504
1&
b01111011 '
b01100001 (
#505
0&
#506
1&
b00100011 '
b10000001 (
#507
0&
#508
1&
b00000000 '
b10100001 (
#509
0&
#510
1&
b00100111 '
b11000001 (
#511
0&
#512
1&
b10000010 '
b11100001 (
#513
0&
#514
1&
b11011010 '
b00000001 (
#515
0&
#516
1&
b11111101 '
b00100001 (
#517
0&
#518
1&
b11010110 '
b01000001 (
#519
0&
#520
1&
b01111011 '
b01100001 (
#521
0&
#522
1&
b00100011 '
b10000001 (
#523
0&
#524
1&
b00000000 '
b10100001 (
#525
0&
#526
1&
b00100111 '
b11000001 (
#527
0&
#528
1&
b10000010 '
b11100001 (
#529
0&
#530
1&
b11011010 '
b00000001 (
#531
0&
#532
1&
b11111101 '
b00100001 (
#533
0&
#534
1&
b11010110 '
b01000001 (
#535
0&
#536
1&
b01111011 '
b01100001 (
#537
0&
#538
1&
b00100011 '
b10000001 (
#539
0&
#540
1&
b00000000 '
b10100001 (
#541
0&
#542
1&
b00100111 '
b11000001 (
#543
0&
#544
1&
b10000010 '
b11100001 (
#545
0&
#546
1&
b11011010 '
b00000001 (
#547
0&
#548
1&
b11111101 '
b00100001 (
#549
0&
#550
1&
b11010110 '
b01000001 (
#551
0&
#552
1&
b01111011 '
b01100001 (
#553
0&
#554
1&
b00100011 '
b10000001 (
#555
0&
#556
1&
b00000000 '
b10100001 (
#557
0&
#558
1&
b00100111 '
b11000001 (
#559
0&
#560
1&
b10000010 '
b11100001 (
#561
0&
#562
1&
b11011010 '
b00000001 (
#563
0&
#564
1&
b11111101 '
b00100001 (
#565
0&
#566
1&
b11010110 '
b01000001 (
#567
0&
#568
1&
b01111011 '
b01100001 (
#569
0&
#570
1&
b00100011 '
b10000001 (
#571
0&
#572
1&
b00000000 '
b10100001 (
#573
0&
#574
1&
b00100111 '
b11000001 (
#575
0&
#576
1&
b10000010 '
b11100001 (
#577
0&
#578
1&
b11011010 '
b00000001 (
#579
0&
#580
1&
b11111101 '
b00100001 (
#581
0&
#582
1&
b11010110 '
b01000001 (
#583
0&
#584
1&
b01111011 '
b01100001 (
#585
0&
#586
1&
b00100011 '
b10000001 (
#587
0&
#588
1&
b00000000 '
b10100001 (
#589
0&
#590
1&
b00100111 '
b11000001 (
#591
0&
#592
1&
b10000010 '
b11100001 (
#593
0&
#594
1&
b11011010 '
b00000001 (
#595
0&
#596
1&
b11111101 '
b00100001 (
#597
0&
#598
1&
b11010110 '
b01000001 (
#599
0&
#600
1&
b01111011 '
b01100001 (
#601
0&
#602
1&
b00100011 '
b10000001 (
#603
0&
#604
1&
b00000000 '
b10100001 (
#605
0&
#606
1&
b00100111 '
b11000001 (
#607
0&
#608
1&
b10000010 '
b11100001 (
#609
0&
#610
1&
b11011010 '
b00000001 (
#611
0&
#612
1&
b11111101 '
b00100001 (
#613
0&
#614
1&
b11010110 '
b01000001 (
#615
0&
#616
1&
b01111011 '
b01100001 (
#617
0&
#618
1&
b00100011 '
b10000001 (
#619
0&
#620
1&
b00000000 '
b10100001 (
#621
0&
#622
1&
b00100111 '
b11000001 (
#623
0&
#624
1&
b10000010 '
b11100001 (
#625
0&
#626
1&
b11011010 '
b00000001 (
#627
0&
#628
1&
b11111101 '
b00100001 (
#629
0&
#630
1&
b11010110 '
b01000001 (
#631
0&
#632
1&
b01111011 '
b01100001 (
#633
0&
#634
1&
b00100011 '
b10000001 (
#635
0&
#636
1&
b00000000 '
b10100001 (
#637
0&
#638
1&
b00100111 '
b11000001 (
#639
0&
#640
1&
b10000010 '
b11100001 (
#641
0&
#642
1&
b11011010 '
b00000001 (
#643
0&
#644
1&
b11111101 '
b00100001 (
#645
0&
#646
1&
b11010110 '
b01000001 (
#647
0&
#648
1&
b01111011 '
b01100001 (
#649
0&
#650
1&
b00100011 '
b10000001 (
#651
0&
#652
1&
b00000000 '
b10100001 (
#653
0&
#654
1&
b00100111 '
b11000001 (
#655
0&
#656
1&
b10000010 '
b11100001 (
#657
0&
#658
1&
b11011010 '
b00000001 (
#659
0&
#660
1&
b11111101 '
b00100001 (
#661
0&
#662
1&
b11010110 '
b01000001 (
#663
0&
#664
1&
b01111011 '
b01100001 (
#665
0&
#666
1&
b00100011 '
b10000001 (
#667
0&
#668
1&
b00000000 '
b10100001 (
#669
0&
#670
1&
b00100111 '
b11000001 (
#671
0&
#672
1&
b10000010 '
b11100001 (
#673
0&
#674
1&
b11011010 '
b00000001 (
#675
0&
#676
1&
b11111101 '
b00100001 (
#677
0&
#678
1&
b11010110 '
b01000001 (
#679
0&
#680
1&
b01111011 '
b01100001 (
#681
0&
#682
1&
b00100011 '
b10000001 (
#683
0&
#684
1&
b00000000 '
b10100001 (
#685
0&
#686
1&
b00100111 '
b11000001 (
#687
0&
#688
1&
b10000010 '
b11100001 (
#689
0&
#690
1&
b11011010 '
b00000001 (
#691
0&
#692
1&
b11111101 '
b00100001 (
#693
0&
#694
1&
b11010110 '
b01000001 (
#695
0&
#696
1&
b01111011 '
b01100001 (
#697
0&
#698
1&
b00100011 '
b10000001 (
#699
0&
#700
1&
b00000000 '
b10100001 (
#701
0&
#702
1&
b00100111 '
b11000001 (
#703
0&
#704
1&
b10000010 '
b11100001 (
#705
0&
#706
1&
b11011010 '
b00000001 (
#707
0&
#708
1&
b11111101 '
b00100001 (
#709
0&
#710
1&
b11010110 '
b01000001 (
#711
0&
#712
1&
b01111011 '
b01100001 (
#713
0&
#714
1&
b00100011 '
b10000001 (
#715
0&
#716
1&
b00000000 '
b10100001 (
#717
0&
#718
1&
b00100111 '
b11000001 (
#719
0&
#720
1&
b10000010 '
b11100001 (
#721
0&
#722
1&
b11011010 '
b00000001 (
#723
0&
#724
1&
b11111101 '
b00100001 (
#725
0&
#726
1&
b11010110 '
b01000001 (
#727
0&
#728
1&
b01111011 '
b01100001 (
#729
0&
#730
1&
b00100011 '
b10000001 (
#731
0&
#732
1&
b00000000 '
b10100001 (
#733
0&
#734
1&
b00100111 '
b11000001 (
#735
0&
#736
1&
b10000010 '
b11100001 (
#737
0&
#738
1&
b11011010 '
b00000001 (
#739
0&
#740
1&
b11111101 '
b00100001 (
#741
0&
#742
1&
b11010110 '
b01000001 (
#743
0&
#744
1&
b01111011 '
b01100001 (
#745
0&
#746
1&
b00100011 '
b10000001 (
#747
0&
#748
1&
b00000000 '
b10100001 (
#749
0&
#750
1&
b00100111 '
b11000001 (
#751
0&
#752
1&
b10000010 '
b11100001 (
#753
0&
#754
1&
b11011010 '
b00000001 (
#755
0&
#756
1&
b11111101 '
b00100001 (
#757
0&
#758
1&
b11010110 '
b01000001 (
#759
0&
#760
1&
b01111011 '
b01100001 (
#761
0&
#762
1&
b00100011 '
b10000001 (
#763
0&
#764
1&
b00000000 '
b10100001 (
#765
0&
#766
1&
b00100111 '
b11000001 (
#767
0&
#768
1&
b10000010 '
b11100001 (
#769
0&
#770
1&
b11011010 '
b00000001 (
#771
0&
#772
1&
b11111101 '
b00100001 (
#773
0&
#774
1&
b11010110 '
b01000001 (
#775
0&
#776
1&
b01111011 '
b01100001 (
#777
0&
#778
1&
b00100011 '
b10000001 (
#779
0&
#780
1&
b00000000 '
b10100001 (
#781
0&
#782
1&
b00100111 '
b11000001 (
#783
0&
#784
1&
b10000010 '
b11100001 (
#785
0&
#786
1&
b11011010 '
b00000001 (
#787
0&
#788
1&
b11111101 '
b00100001 (
#789
0&
#790
1&
b11010110 '
b01000001 (
#791
0&
#792
1&
b01111011 '
b01100001 (
#793
0&
#794
1&
b00100011 '
b10000001 (
#795
0&
#796
1&
b00000000 '
b10100001 (
#797
0&
#798
1&
b00100111 '
b11000001 (
#799
0&
#800
1&
b10000010 '
b11100001 (
#801
0&
#802
1&
b11011010 '
b00000001 (
#803
0&
#804
1&
b11111101 '
b00100001 (
#805
0&
#806
1&
b11010110 '
b01000001 (
#807
0&
#808
1&
b01111011 '
b01100001 (
#809
0&
#810
1&
b00100011 '
b10000001 (
#811
0&
#812
1&
b00000000 '
b10100001 (
#813
0&
#814
1&
b00100111 '
b11000001 (
#815
0&
#816
1&
b10000010 '
b11100001 (
#817
0&
#818
1&
b11011010 '
b00000001 (
#819
0&
#820
1&
b11111101 '
b00100001 (
#821
0&
#822
1&
b11010110 '
b01000001 (
#823
0&
#824
1&
b01111011 '
b01100001 (
#825
0&
#826
1&
b00100011 '
b10000001 (
#827
0&
#828
1&
b00000000 '
b10100001 (
#829
0&
#830
1&
b00100111 '
b11000001 (
#831
0&
#832
1&
b10000010 '
b11100001 (
#833
0&
#834
1&
b11011010 '
b00000001 (
#835
0&
#836
1&
b11111101 '
b00100001 (
#837
0&
#838
1&
b11010110 '
b01000001 (
#839
0&
#840
1&
b01111011 '
b01100001 (
#841
0&
#842
1&
b00100011 '
b10000001 (
#843
0&
#844
1&
b00000000 '
b10100001 (
#845
0&
#846
1&
b00100111 '
b11000001 (
#847
0&
#848
1&
b10000010 '
b11100001 (
#849
0&
#850
1&
b11011010 '
b00000001 (
#851
0&
#852
1&
b11111101 '
b00100001 (
#853
0&
#854
1&
b11010110 '
b01000001 (
#855
0&
#856
1&
b01111011 '
b01100001 (
#857
0&
#858
1&
b00100011 '
b10000001 (
#859
0&
#860
1&
b00000000 '
b10100001 (
#861
0&
#862
1&
b00100111 '
b11000001 (
#863
0&
#864
1&
b10000010 '
b11100001 (
#865
0&
#866
1&
b11011010 '
b00000001 (
#867
0&
#868
1&
b11111101 '
b00100001 (
#869
0&
#870
1&
b11010110 '
b01000001 (
#871
0&
#872
1&
b01111011 '
b01100001 (
#873
0&
#874
1&
b00100011 '
b10000001 (
#875
0&
#876
1&
b00000000 '
b10100001 (
#877
0&
#878
1&
b00100111 '
b11000001 (
#879
0&
#880
1&
b10000010 '
b11100001 (
#881
0&
#882
1&
b11011010 '
b00000001 (
#883
0&
#884
1&
b11111101 '
b00100001 (
#885
0&
#886
1&
b11010110 '
b01000001 (
#887
0&
#888
1&
b01111011 '
b01100001 (
#889
0&
#890
1&
b00100011 '
b10000001 (
#891
0&
#892
1&
b00000000 '
b10100001 (
#893
0&
#894
1&
b00100111 '
b11000001 (
#895
0&
#896
1&
b10000010 '
b11100001 (
#897
0&
#898
1&
b11011010 '
b00000001 (
#899
0&
#900
1&
b11111101 '
b00100001 (
#901
0&
#902
1&
b11010110 '
b01000001 (
#903
0&
#904
1&
b01111011 '
b01100001 (
#905
0&
#906
1&
b00100011 '
b10000001 (
#907
0&
#908
1&
b00000000 '
b10100001 (
#909
0&
#910
1&
b00100111 '
b11000001 (
#911
0&
#912
1&
b10000010 '
b11100001 (
#913
0&
#914
1&
b11011010 '
b00000001 (
#915
0&
#916
1&
b11111101 '
b00100001 (
#917
0&
#918
1&
b11010110 '
b01000001 (
#919
0&
#920
1&
b01111011 '
b01100001 (
#921
0&
#922
1&
b00100011 '
b10000001 (
#923
0&
#924
1&
b00000000 '
b10100001 (
#925
0&
#926
1&
b00100111 '
b11000001 (
#927
0&
#928
1&
b10000010 '
b11100001 (
#929
0&
#930
1&
b11011010 '
b00000001 (
#931
0&
#932
1&
b11111101 '
b00100001 (
#933
0&
#934
1&
b11010110 '
b01000001 (
#935
0&
#936
1&
b01111011 '
b01100001 (
#937
0&
#938
1&
b00100011 '
b10000001 (
#939
0&
#940
1&
b00000000 '
b10100001 (
#941
0&
#942
1&
b00100111 '
b11000001 (
#943
0&
#944
1&
b10000010 '
b11100001 (
#945
0&
#946
1&
b11011010 '
b00000001 (
#947
0&
#948
1&
b11111101 '
b00100001 (
#949
0&
#950
1&
b11010110 '
b01000001 (
#951
0&
#952
1&
b01111011 '
b01100001 (
#953
0&
#954
1&
b00100011 '
b10000001 (
#955
0&
#956
1&
b00000000 '
b10100001 (
#957
0&
#958
1&
b00100111 '
b11000001 (
#959
0&
#960
1&
b10000010 '
b11100001 (
#961
0&
#962
1&
b11011010 '
b00000001 (
#963
0&
#964
1&
b11111101 '
b00100001 (
#965
0&
#966
1&
b11010110 '
b01000001 (
#967
0&
#968
1&
b01111011 '
b01100001 (
#969
0&
#970
1&
b00100011 '
b10000001 (
#971
0&
#972
1&
b00000000 '
b10100001 (
#973
0&
#974
1&
b00100111 '
b11000001 (
#975
0&
#976
1&
b10000010 '
b11100001 (
#977
0&
#978
1&
b11011010 '
b00000001 (
#979
0&
#980
1&
b11111101 '
b00100001 (
#981
0&
#982
1&
b11010110 '
b01000001 (
#983
0&
#984
1&
b01111011 '
b01100001 (
#985
0&
#986
1&
b00100011 '
b10000001 (
#987
0&
#988
1&
b00000000 '
b10100001 (
#989
0&
#990
1&
b00100111 '
b11000001 (
#991
0&
#992
1&
b10000010 '
b11100001 (
#993
0&
#994
1&
b11011010 '
b00000001 (
#995
0&
#996
1&
b11111101 '
b00100001 (
#997
0&
#998
1&
b11010110 '
b01000001 (
#999
0&
#1000
1&
b01111011 '
b01100001 (
#1001
0&
#1002
1&
b00100011 '
b10000001 (
#1003
0&
#1004
1&
b00000000 '
b10100001 (
#1005
0&
#1006
1&
b00100111 '
b11000001 (
#1007
0&
#1008
1&
b10000010 '
b11100001 (
#1009
0&
#1010
1&
b11011010 '
b00000001 (
#1011
0&
#1012
1&
b11111101 '
b00100001 (
#1013
0&
#1014
1&
b11010110 '
b01000001 (
#1015
0&
#1016
1&
b01111011 '
b01100001 (
#1017
0&
#1018
1&
b00100011 '
b10000001 (
#1019
0&
#1020
1&
b00000000 '
b10100001 (
#1021
0&
#1022
1&
b00100111 '
b11000001 (
#1023
0&
#1024
1&
b10000010 '
b11100001 (
#1025
0&
#1026
1&
b11011010 '
b00000001 (
#1027
0&
#1028
1&
b11111101 '
b00100001 (
#1029
0&
#1030
1&
b11010110 '
b01000001 (
#1031
0&
#1032
1&
b01111011 '
b01100001 (
#1033
0&
#1034
1&
b00100011 '
b10000001 (
#1035
0&
#1036
1&
b00000000 '
b10100001 (
#1037
0&
#1038
1&
b00100111 '
b11000001 (
#1039
0&
#1040
1&
b10000010 '
b11100001 (
#1041
0&
#1042
1&
b11011010 '
b00000001 (
#1043
0&
#1044
1&
b11111101 '
b00100001 (
#1045
0&
#1046
1&
b11010110 '
b01000001 (
#1047
0&
#1048
1&
b01111011 '
b01100001 (
#1049
0&
#1050
1&
b00100011 '
b10000001 (
#1051
0&
#1052
1&
b00000000 '
b10100001 (
#1053
0&
#1054
1&
b00100111 '
b11000001 (
#1055
0&
#1056
1&
b10000010 '
b11100001 (
#1057
0&
#1058
1&
b11011010 '
b00000001 (
#1059
0&
#1060
1&
b11111101 '
b00100001 (
#1061
0&
#1062
1&
b11010110 '
b01000001 (
#1063
0&
#1064
1&
b01111011 '
b01100001 (
#1065
0&
#1066
1&
b00100011 '
b10000001 (
#1067
0&
#1068
1&
b00000000 '
b10100001 (
#1069
0&
#1070
1&
b00100111 '
b11000001 (
#1071
0&
#1072
1&
b10000010 '
b11100001 (
#1073
0&
#1074
1&
b11011010 '
b00000001 (
#1075
0&
#1076
1&
b11111101 '
b00100001 (
#1077
0&
#1078
1&
b11010110 '
b01000001 (
#1079
0&
#1080
1&
b01111011 '
b01100001 (
#1081
0&
#1082
1&
b00100011 '
b10000001 (
#1083
0&
#1084
1&
b00000000 '
b10100001 (
#1085
0&
#1086
1&
b00100111 '
b11000001 (
#1087
0&
#1088
1&
b10000010 '
b11100001 (
#1089
0&
#1090
1&
b11011010 '
b00000001 (
#1091
0&
